…
    ## Warning in FUN(X[[i]], ...): unable to translate '<U+00E6>' to native encoding

    ## Warning in FUN(X[[i]], ...): unable to translate '<U+00D8>' to native encoding

    ## Warning in FUN(X[[i]], ...): unable to translate '<U+00F8>' to native encoding

    ## Warning in FUN(X[[i]], ...): unable to translate '<U+00C5>' to native encoding

    ## Warning in FUN(X[[i]], ...): unable to translate '<U+00E5>' to native encoding

``` r
birthweight_clean
```

    ## # A tibble: 4,342 x 20
    ##    babysex bhead blength   bwt delwt fincome frace gaweeks malform menarche
    ##    <fct>   <dbl>   <dbl> <dbl> <dbl>   <dbl> <fct>   <dbl> <fct>      <dbl>
    ##  1 Female     34      51  3629   177      35 White    39.9 Absent        13
    ##  2 Male       34      48  3062   156      65 Black    25.9 Absent        14
    ##  3 Female     36      50  3345   148      85 White    39.9 Absent        12
    ##  4 Male       34      52  3062   157      55 White    40   Absent        14
    ##  5 Female     34      52  3374   156       5 White    41.6 Absent        13
    ##  6 Male       33      52  3374   129      55 White    40.7 Absent        12
    ##  7 Female     33      46  2523   126      96 Black    40.3 Absent        14
    ##  8 Female     33      49  2778   140       5 White    37.4 Absent        12
    ##  9 Male       36      52  3515   146      85 White    40.3 Absent        11
    ## 10 Male       33      50  3459   169      75 Black    40.7 Absent        12
    ## # ... with 4,332 more rows, and 10 more variables: mheight <dbl>, momage <dbl>,
    ## #   mrace <fct>, parity <dbl>, pnumlbw <dbl>, pnumsga <dbl>, ppbmi <dbl>,
    ## #   ppwt <dbl>, smoken <dbl>, wtgain <dbl>
…
